{
  "item": [
    {
      "id": "1e0ee86a-2f59-43f3-9333-a56dbc31260b",
      "name": "login",
      "request": {
        "url": {
          "protocol": "http",
          "port": "3000",
          "path": [
            "auth",
            "login"
          ],
          "host": [
            "localhost"
          ],
          "query": [],
          "variable": []
        },
        "header": [
          {
            "key": "Authorization",
            "value": ""
          },
          {
            "key": "Content-Type",
            "value": "application/json"
          },
          {
            "key": "cache-control",
            "value": "no-cache"
          }
        ],
        "method": "POST",
        "body": {
          "mode": "raw",
          "raw": "{\"username\":\"value1\",\"password\":\"value2\"}",
          "options": {
            "raw": {
              "language": "json"
            }
          }
        }
      },
      "response": [],
      "event": []
    },
    {
      "id": "8a4994ad-5c1d-4345-b865-4f518e641ac5",
      "name": "register",
      "request": {
        "url": {
          "protocol": "http",
          "port": "3000",
          "path": [
            "auth",
            "register"
          ],
          "host": [
            "localhost"
          ],
          "query": [],
          "variable": []
        },
        "header": [
          {
            "key": "Authorization",
            "value": ""
          },
          {
            "key": "Content-Type",
            "value": "application/json"
          },
          {
            "key": "cache-control",
            "value": "no-cache"
          }
        ],
        "method": "POST",
        "body": {
          "mode": "raw",
          "raw": "{\"username\":\"value1\",\"password\":\"value2\"}",
          "options": {
            "raw": {
              "language": "json"
            }
          }
        }
      },
      "response": [],
      "event": []
    },
    {
      "id": "b86966a1-6034-4048-b787-18a3688a9dad",
      "name": "Create Biodata",
      "request": {
        "url": {
          "protocol": "http",
          "port": "3000",
          "path": [
            ":userId",
            "biodata"
          ],
          "host": [
            "localhost"
          ],
          "query": [],
          "variable": [
            {
              "type": "any",
              "key": "userId"
            }
          ]
        },
        "header": [
          {
            "key": "Authorization",
            "value": "eyJhbGciOiJIUzI1NiIsInR5cCI6IkpXVCJ9.eyJ1c2VybmFtZSI6InZhbHVlMSIsImxvZ2luRGF0ZSI6IjIwMjItMTAtMDdUMDQ6MTE6MTcuMjE3WiIsImlhdCI6MTY2NTExNTg3N30.U9_FYT8jMUwEreZrtIbMIX6cst_ZET7QKKd0Amn5iM0"
          },
          {
            "key": "Content-Type",
            "value": "application/json"
          },
          {
            "key": "cache-control",
            "value": "no-cache"
          }
        ],
        "method": "POST",
        "body": {
          "mode": "raw",
          "raw": "{\"avatar\":\"avatar1\",\"nickname\":\"nickname2\",\"rank\":\"Mythic\",\"level\":30}",
          "options": {
            "raw": {
              "language": "json"
            }
          }
        }
      },
      "response": [],
      "event": []
    },
    {
      "id": "b8f19f3c-9906-40b7-8143-e1112902b176",
      "name": "Get Biodata",
      "request": {
        "url": {
          "protocol": "http",
          "port": "3000",
          "path": [
            ":userId",
            "biodata"
          ],
          "host": [
            "localhost"
          ],
          "query": [],
          "variable": [
            {
              "type": "any",
              "key": "userId"
            }
          ]
        },
        "header": [
          {
            "key": "Authorization",
            "value": "eyJhbGciOiJIUzI1NiIsInR5cCI6IkpXVCJ9.eyJ1c2VybmFtZSI6InZhbHVlMSIsImxvZ2luRGF0ZSI6IjIwMjItMTAtMDdUMDQ6MTE6MTcuMjE3WiIsImlhdCI6MTY2NTExNTg3N30.U9_FYT8jMUwEreZrtIbMIX6cst_ZET7QKKd0Amn5iM0"
          },
          {
            "key": "Content-Type",
            "value": "application/json"
          },
          {
            "key": "cache-control",
            "value": "no-cache"
          }
        ],
        "method": "GET",
        "body": {
          "mode": "raw",
          "raw": "null",
          "options": {
            "raw": {
              "language": "json"
            }
          }
        }
      },
      "response": [],
      "event": []
    },
    {
      "id": "3192e20c-ccd4-4f4d-9eea-b29e349051cf",
      "name": "Update Biodata",
      "request": {
        "url": {
          "protocol": "http",
          "port": "3000",
          "path": [
            ":userId",
            "biodata"
          ],
          "host": [
            "localhost"
          ],
          "query": [],
          "variable": [
            {
              "type": "any",
              "key": "userId"
            }
          ]
        },
        "header": [
          {
            "key": "Authorization",
            "value": "eyJhbGciOiJIUzI1NiIsInR5cCI6IkpXVCJ9.eyJ1c2VybmFtZSI6InZhbHVlMSIsImxvZ2luRGF0ZSI6IjIwMjItMTAtMDdUMDQ6MTE6MTcuMjE3WiIsImlhdCI6MTY2NTExNTg3N30.U9_FYT8jMUwEreZrtIbMIX6cst_ZET7QKKd0Amn5iM0"
          },
          {
            "key": "Content-Type",
            "value": "application/json"
          },
          {
            "key": "cache-control",
            "value": "no-cache"
          }
        ],
        "method": "PUT",
        "body": {
          "mode": "raw",
          "raw": "{\"avatar\":\"new_avatar1\",\"nickname\":\"new_nickname2\",\"rank\":\"Mythical Glory\",\"level\":50}",
          "options": {
            "raw": {
              "language": "json"
            }
          }
        }
      },
      "response": [],
      "event": []
    },
    {
      "id": "40171030-4072-4565-9b00-ce1e41602e41",
      "name": "Delete Biodata",
      "request": {
        "url": {
          "protocol": "http",
          "port": "3000",
          "path": [
            ":userId",
            "biodata"
          ],
          "host": [
            "localhost"
          ],
          "query": [],
          "variable": [
            {
              "type": "any",
              "key": "userId"
            }
          ]
        },
        "header": [
          {
            "key": "Authorization",
            "value": "eyJhbGciOiJIUzI1NiIsInR5cCI6IkpXVCJ9.eyJ1c2VybmFtZSI6InZhbHVlMSIsImxvZ2luRGF0ZSI6IjIwMjItMTAtMDdUMDQ6MTE6MTcuMjE3WiIsImlhdCI6MTY2NTExNTg3N30.U9_FYT8jMUwEreZrtIbMIX6cst_ZET7QKKd0Amn5iM0"
          },
          {
            "key": "Content-Type",
            "value": "application/json"
          },
          {
            "key": "cache-control",
            "value": "no-cache"
          }
        ],
        "method": "DELETE",
        "body": {
          "mode": "raw",
          "raw": "null",
          "options": {
            "raw": {
              "language": "json"
            }
          }
        }
      },
      "response": [],
      "event": []
    },
    {
      "id": "16a534e5-a935-410b-a66c-8d5b3068fe0d",
      "name": "Create Biodata",
      "request": {
        "url": {
          "protocol": "http",
          "port": "3000",
          "path": [
            ":userId",
            "history"
          ],
          "host": [
            "localhost"
          ],
          "query": [],
          "variable": [
            {
              "type": "any",
              "key": "userId"
            }
          ]
        },
        "header": [
          {
            "key": "Authorization",
            "value": ""
          },
          {
            "key": "Content-Type",
            "value": "application/json"
          },
          {
            "key": "cache-control",
            "value": "no-cache"
          }
        ],
        "method": "POST",
        "body": {
          "mode": "raw",
          "raw": "{\"score\":10,\"is_win\":true,\"match_type\":\"Rank\",\"duration\":600}",
          "options": {
            "raw": {
              "language": "json"
            }
          }
        }
      },
      "response": [],
      "event": []
    },
    {
      "id": "f3877e4e-017b-4af1-82ff-b5dbf6903f05",
      "name": "Get Biodata",
      "request": {
        "url": {
          "protocol": "http",
          "port": "3000",
          "path": [
            ":userId",
            "history"
          ],
          "host": [
            "localhost"
          ],
          "query": [],
          "variable": [
            {
              "type": "any",
              "key": "userId"
            }
          ]
        },
        "header": [
          {
            "key": "Authorization",
            "value": ""
          },
          {
            "key": "Content-Type",
            "value": "application/json"
          },
          {
            "key": "cache-control",
            "value": "no-cache"
          }
        ],
        "method": "GET",
        "body": {
          "mode": "raw",
          "raw": "null",
          "options": {
            "raw": {
              "language": "json"
            }
          }
        }
      },
      "response": [],
      "event": []
    },
    {
      "id": "701f5de3-8790-4f35-b047-9f75a9923cf2",
      "name": "Update Biodata",
      "request": {
        "url": {
          "protocol": "http",
          "port": "3000",
          "path": [
            ":userId",
            "history",
            ":historyId"
          ],
          "host": [
            "localhost"
          ],
          "query": [],
          "variable": [
            {
              "type": "any",
              "key": "userId"
            },
            {
              "type": "any",
              "key": "historyId"
            }
          ]
        },
        "header": [
          {
            "key": "Authorization",
            "value": ""
          },
          {
            "key": "Content-Type",
            "value": "application/json"
          },
          {
            "key": "cache-control",
            "value": "no-cache"
          }
        ],
        "method": "PUT",
        "body": {
          "mode": "raw",
          "raw": "{\"score\":0,\"is_win\":false,\"match_type\":\"Classic\",\"duration\":1200}",
          "options": {
            "raw": {
              "language": "json"
            }
          }
        }
      },
      "response": [],
      "event": []
    },
    {
      "id": "6775ab93-2a24-45e8-8995-9af21dd5d823",
      "name": "Delete Biodata",
      "request": {
        "url": {
          "protocol": "http",
          "port": "3000",
          "path": [
            ":userId",
            "history",
            ":historyId"
          ],
          "host": [
            "localhost"
          ],
          "query": [],
          "variable": [
            {
              "type": "any",
              "key": "userId"
            },
            {
              "type": "any",
              "key": "historyId"
            }
          ]
        },
        "header": [
          {
            "key": "Authorization",
            "value": ""
          },
          {
            "key": "Content-Type",
            "value": "application/json"
          },
          {
            "key": "cache-control",
            "value": "no-cache"
          }
        ],
        "method": "DELETE",
        "body": {
          "mode": "raw",
          "raw": "null",
          "options": {
            "raw": {
              "language": "json"
            }
          }
        }
      },
      "response": [],
      "event": []
    },
    {
      "id": "c4659551-ca47-43a1-ac1c-9c2ddd844a14",
      "name": "Create Biodata",
      "request": {
        "url": {
          "protocol": "http",
          "port": "3000",
          "path": [
            "users",
            ""
          ],
          "host": [
            "localhost"
          ],
          "query": [],
          "variable": []
        },
        "header": [
          {
            "key": "Authorization",
            "value": "eyJhbGciOiJIUzI1NiIsInR5cCI6IkpXVCJ9.eyJ1c2VybmFtZSI6InZhbHVlMSIsImxvZ2luRGF0ZSI6IjIwMjItMTAtMDdUMDQ6MTE6MTcuMjE3WiIsImlhdCI6MTY2NTExNTg3N30.U9_FYT8jMUwEreZrtIbMIX6cst_ZET7QKKd0Amn5iM0"
          },
          {
            "key": "Content-Type",
            "value": "application/json"
          },
          {
            "key": "cache-control",
            "value": "no-cache"
          }
        ],
        "method": "POST",
        "body": {
          "mode": "raw",
          "raw": "{\"username\":\"username_1\",\"password\":\"password_1\"}",
          "options": {
            "raw": {
              "language": "json"
            }
          }
        }
      },
      "response": [],
      "event": []
    },
    {
      "id": "9b0c0adb-aa63-4e00-86db-64bcd48938ef",
      "name": "Get Biodata",
      "request": {
        "url": {
          "protocol": "http",
          "port": "3000",
          "path": [
            "users",
            ""
          ],
          "host": [
            "localhost"
          ],
          "query": [],
          "variable": []
        },
        "header": [
          {
            "key": "Authorization",
            "value": "eyJhbGciOiJIUzI1NiIsInR5cCI6IkpXVCJ9.eyJ1c2VybmFtZSI6InZhbHVlMSIsImxvZ2luRGF0ZSI6IjIwMjItMTAtMDdUMDQ6MTE6MTcuMjE3WiIsImlhdCI6MTY2NTExNTg3N30.U9_FYT8jMUwEreZrtIbMIX6cst_ZET7QKKd0Amn5iM0"
          },
          {
            "key": "Content-Type",
            "value": "application/json"
          },
          {
            "key": "cache-control",
            "value": "no-cache"
          }
        ],
        "method": "GET",
        "body": {
          "mode": "raw",
          "raw": "null",
          "options": {
            "raw": {
              "language": "json"
            }
          }
        }
      },
      "response": [],
      "event": []
    },
    {
      "id": "84bd9af6-3558-4bac-a398-c101c9b7fd13",
      "name": "Get Biodata",
      "request": {
        "url": {
          "protocol": "http",
          "port": "3000",
          "path": [
            "users",
            ":userId"
          ],
          "host": [
            "localhost"
          ],
          "query": [],
          "variable": [
            {
              "type": "any",
              "key": "userId"
            }
          ]
        },
        "header": [
          {
            "key": "Authorization",
            "value": "eyJhbGciOiJIUzI1NiIsInR5cCI6IkpXVCJ9.eyJ1c2VybmFtZSI6InZhbHVlMSIsImxvZ2luRGF0ZSI6IjIwMjItMTAtMDdUMDQ6MTE6MTcuMjE3WiIsImlhdCI6MTY2NTExNTg3N30.U9_FYT8jMUwEreZrtIbMIX6cst_ZET7QKKd0Amn5iM0"
          },
          {
            "key": "Content-Type",
            "value": "application/json"
          },
          {
            "key": "cache-control",
            "value": "no-cache"
          }
        ],
        "method": "GET",
        "body": {
          "mode": "raw",
          "raw": "null",
          "options": {
            "raw": {
              "language": "json"
            }
          }
        }
      },
      "response": [],
      "event": []
    },
    {
      "id": "1fe4b344-1e95-418d-9912-387c05c70cd7",
      "name": "Update Biodata",
      "request": {
        "url": {
          "protocol": "http",
          "port": "3000",
          "path": [
            "users",
            ":userId"
          ],
          "host": [
            "localhost"
          ],
          "query": [],
          "variable": [
            {
              "type": "any",
              "key": "userId"
            }
          ]
        },
        "header": [
          {
            "key": "Authorization",
            "value": "eyJhbGciOiJIUzI1NiIsInR5cCI6IkpXVCJ9.eyJ1c2VybmFtZSI6InZhbHVlMSIsImxvZ2luRGF0ZSI6IjIwMjItMTAtMDdUMDQ6MTE6MTcuMjE3WiIsImlhdCI6MTY2NTExNTg3N30.U9_FYT8jMUwEreZrtIbMIX6cst_ZET7QKKd0Amn5iM0"
          },
          {
            "key": "Content-Type",
            "value": "application/json"
          },
          {
            "key": "cache-control",
            "value": "no-cache"
          }
        ],
        "method": "PUT",
        "body": {
          "mode": "raw",
          "raw": "{\"username\":\"username_updated\",\"password\":\"password_updated\"}",
          "options": {
            "raw": {
              "language": "json"
            }
          }
        }
      },
      "response": [],
      "event": []
    },
    {
      "id": "84178d06-7937-4a76-8a60-cf8f2d4178ce",
      "name": "Delete Biodata",
      "request": {
        "url": {
          "protocol": "http",
          "port": "3000",
          "path": [
            "users",
            ":userId"
          ],
          "host": [
            "localhost"
          ],
          "query": [],
          "variable": [
            {
              "type": "any",
              "key": "userId"
            }
          ]
        },
        "header": [
          {
            "key": "Authorization",
            "value": "eyJhbGciOiJIUzI1NiIsInR5cCI6IkpXVCJ9.eyJ1c2VybmFtZSI6InZhbHVlMSIsImxvZ2luRGF0ZSI6IjIwMjItMTAtMDdUMDQ6MTE6MTcuMjE3WiIsImlhdCI6MTY2NTExNTg3N30.U9_FYT8jMUwEreZrtIbMIX6cst_ZET7QKKd0Amn5iM0"
          },
          {
            "key": "Content-Type",
            "value": "application/json"
          },
          {
            "key": "cache-control",
            "value": "no-cache"
          }
        ],
        "method": "DELETE",
        "body": {
          "mode": "raw",
          "raw": "null",
          "options": {
            "raw": {
              "language": "json"
            }
          }
        }
      },
      "response": [],
      "event": []
    }
  ],
  "event": [],
  "variable": [],
  "info": {
    "_postman_id": "d1deb223-66e1-4d0a-a7de-608a9839e8d3",
    "name": "Game API Documentation",
    "schema": "https://schema.getpostman.com/json/collection/v2.1.0/collection.json"
  }
}